[
  {
    "_id": "fbd9d370-15cb-4782-8106-ec69e7782128",
    "colId": "history",
    "containerId": "",
    "name": "https://openlibrary.org/works/OL27591348W.json",
    "url": "https://openlibrary.org/works/OL27591348W.json",
    "method": "GET",
    "sortNum": 0,
    "created": "2023-04-20T09:43:55.001Z",
    "modified": "2023-04-20T09:43:55.001Z",
    "headers": [],
    "params": [],
    "tests": []
  },
  {
    "_id": "ffa2bd37-9191-4184-b2e1-96b6f06c22c4",
    "colId": "history",
    "containerId": "",
    "name": "https://openlibrary.org/works/OL45804W.json",
    "url": "https://covers.openlibrary.org/b/olid/OL38237074M-L.jpg",
    "method": "GET",
    "sortNum": 0,
    "created": "2023-04-20T10:03:00.125Z",
    "modified": "2023-04-20T12:38:57.663Z",
    "headers": [],
    "params": [],
    "tests": []
  },
  {
    "_id": "20f9f8dd-1e69-4d17-8f98-42018e1a37ba",
    "colId": "history",
    "containerId": "",
    "name": "https://openlibrary.org/books/OL38237074M.json",
    "url": "https://openlibrary.org/books/OL38237074M.json",
    "method": "GET",
    "sortNum": 0,
    "created": "2023-04-20T10:13:37.379Z",
    "modified": "2023-04-20T10:13:37.379Z",
    "headers": [],
    "params": [],
    "tests": []
  },
  {
    "_id": "960ea4c5-b791-4710-91df-9bb1b023cc68",
    "colId": "history",
    "containerId": "",
    "name": "https://openlibrary.org/works/OL27591348W.json?jscmd=detail",
    "url": "https://openlibrary.org/works/OL27591348W.json?jscmd=detail",
    "method": "GET",
    "sortNum": 0,
    "created": "2023-04-20T10:16:36.815Z",
    "modified": "2023-04-20T10:16:36.815Z",
    "headers": [],
    "params": [
      {
        "name": "jscmd",
        "value": "detail",
        "isPath": false
      }
    ],
    "tests": []
  },
  {
    "_id": "9b0e0112-e416-461a-a251-57f4d6ffc83a",
    "colId": "history",
    "containerId": "",
    "name": "https://covers.openlibrary.org/b/olid/OL38237074M-L.jpg",
    "url": "https://openlibrary.org/works/OL38237074M.json",
    "method": "GET",
    "sortNum": 0,
    "created": "2023-04-20T10:24:27.601Z",
    "modified": "2023-04-20T13:21:33.379Z",
    "headers": [],
    "params": [],
    "tests": []
  }
]